<?xml version="1.0" encoding="utf-8" standalone="no"?>
<!DOCTYPE svg PUBLIC "-//W3C//DTD SVG 1.1//EN"
  "http://www.w3.org/Graphics/SVG/1.1/DTD/svg11.dtd">
<!-- Created with matplotlib (https://matplotlib.org/) -->
<svg height="231.84pt" version="1.1" viewBox="0 0 293.420125 231.84" width="293.420125pt" xmlns="http://www.w3.org/2000/svg" xmlns:xlink="http://www.w3.org/1999/xlink">
 <metadata>
  <rdf:RDF xmlns:cc="http://creativecommons.org/ns#" xmlns:dc="http://purl.org/dc/elements/1.1/" xmlns:rdf="http://www.w3.org/1999/02/22-rdf-syntax-ns#">
   <cc:Work>
    <dc:type rdf:resource="http://purl.org/dc/dcmitype/StillImage"/>
    <dc:date>2022-03-07T14:25:52.402474</dc:date>
    <dc:format>image/svg+xml</dc:format>
    <dc:creator>
     <cc:Agent>
      <dc:title>Matplotlib v3.3.4, https://matplotlib.org/</dc:title>
     </cc:Agent>
    </dc:creator>
   </cc:Work>
  </rdf:RDF>
 </metadata>
 <defs>
  <style type="text/css">*{stroke-linecap:butt;stroke-linejoin:round;}</style>
 </defs>
 <g id="figure_1">
  <g id="patch_1">
   <path d="M 0 231.84 
L 293.420125 231.84 
L 293.420125 0 
L 0 0 
z
" style="fill:#ffffff;"/>
  </g>
  <g id="axes_1">
   <g id="patch_2">
    <path d="M 7.2 224.64 
L 224.64 224.64 
L 224.64 7.2 
L 7.2 7.2 
z
" style="fill:#ffffff;"/>
   </g>
   <g id="matplotlib.axis_1"/>
   <g id="matplotlib.axis_2"/>
   <g id="QuadMesh_1">
    <path clip-path="url(#pefd400a8a3)" d="M 7.2 7.2 
L 38.262857 7.2 
L 38.262857 38.262857 
L 7.2 38.262857 
L 7.2 7.2 
" style="fill:#08306b;stroke:#ffffff;stroke-width:0.1;"/>
    <path clip-path="url(#pefd400a8a3)" d="M 38.262857 7.2 
L 69.325714 7.2 
L 69.325714 38.262857 
L 38.262857 38.262857 
L 38.262857 7.2 
" style="fill:#a3cce3;stroke:#ffffff;stroke-width:0.1;"/>
    <path clip-path="url(#pefd400a8a3)" d="M 69.325714 7.2 
L 100.388571 7.2 
L 100.388571 38.262857 
L 69.325714 38.262857 
L 69.325714 7.2 
" style="fill:#92c4de;stroke:#ffffff;stroke-width:0.1;"/>
    <path clip-path="url(#pefd400a8a3)" d="M 100.388571 7.2 
L 131.451429 7.2 
L 131.451429 38.262857 
L 100.388571 38.262857 
L 100.388571 7.2 
" style="fill:#4191c6;stroke:#ffffff;stroke-width:0.1;"/>
    <path clip-path="url(#pefd400a8a3)" d="M 131.451429 7.2 
L 162.514286 7.2 
L 162.514286 38.262857 
L 131.451429 38.262857 
L 131.451429 7.2 
" style="fill:#6dafd7;stroke:#ffffff;stroke-width:0.1;"/>
    <path clip-path="url(#pefd400a8a3)" d="M 162.514286 7.2 
L 193.577143 7.2 
L 193.577143 38.262857 
L 162.514286 38.262857 
L 162.514286 7.2 
" style="fill:#4896c8;stroke:#ffffff;stroke-width:0.1;"/>
    <path clip-path="url(#pefd400a8a3)" d="M 193.577143 7.2 
L 224.64 7.2 
L 224.64 38.262857 
L 193.577143 38.262857 
L 193.577143 7.2 
" style="fill:none;stroke:#ffffff;stroke-width:0.1;"/>
    <path clip-path="url(#pefd400a8a3)" d="M 7.2 38.262857 
L 38.262857 38.262857 
L 38.262857 69.325714 
L 7.2 69.325714 
L 7.2 38.262857 
" style="fill:#63a8d3;stroke:#ffffff;stroke-width:0.1;"/>
    <path clip-path="url(#pefd400a8a3)" d="M 38.262857 38.262857 
L 69.325714 38.262857 
L 69.325714 69.325714 
L 38.262857 69.325714 
L 38.262857 38.262857 
" style="fill:#0a549e;stroke:#ffffff;stroke-width:0.1;"/>
    <path clip-path="url(#pefd400a8a3)" d="M 69.325714 38.262857 
L 100.388571 38.262857 
L 100.388571 69.325714 
L 69.325714 69.325714 
L 69.325714 38.262857 
" style="fill:#a8cee4;stroke:#ffffff;stroke-width:0.1;"/>
    <path clip-path="url(#pefd400a8a3)" d="M 100.388571 38.262857 
L 131.451429 38.262857 
L 131.451429 69.325714 
L 100.388571 69.325714 
L 100.388571 38.262857 
" style="fill:#99c7e0;stroke:#ffffff;stroke-width:0.1;"/>
    <path clip-path="url(#pefd400a8a3)" d="M 131.451429 38.262857 
L 162.514286 38.262857 
L 162.514286 69.325714 
L 131.451429 69.325714 
L 131.451429 38.262857 
" style="fill:#084f99;stroke:#ffffff;stroke-width:0.1;"/>
    <path clip-path="url(#pefd400a8a3)" d="M 162.514286 38.262857 
L 193.577143 38.262857 
L 193.577143 69.325714 
L 162.514286 69.325714 
L 162.514286 38.262857 
" style="fill:#4695c8;stroke:#ffffff;stroke-width:0.1;"/>
    <path clip-path="url(#pefd400a8a3)" d="M 193.577143 38.262857 
L 224.64 38.262857 
L 224.64 69.325714 
L 193.577143 69.325714 
L 193.577143 38.262857 
" style="fill:none;stroke:#ffffff;stroke-width:0.1;"/>
    <path clip-path="url(#pefd400a8a3)" d="M 7.2 69.325714 
L 38.262857 69.325714 
L 38.262857 100.388571 
L 7.2 100.388571 
L 7.2 69.325714 
" style="fill:#ddeaf7;stroke:#ffffff;stroke-width:0.1;"/>
    <path clip-path="url(#pefd400a8a3)" d="M 38.262857 69.325714 
L 69.325714 69.325714 
L 69.325714 100.388571 
L 38.262857 100.388571 
L 38.262857 69.325714 
" style="fill:#e3eef8;stroke:#ffffff;stroke-width:0.1;"/>
    <path clip-path="url(#pefd400a8a3)" d="M 69.325714 69.325714 
L 100.388571 69.325714 
L 100.388571 100.388571 
L 69.325714 100.388571 
L 69.325714 69.325714 
" style="fill:#e7f0fa;stroke:#ffffff;stroke-width:0.1;"/>
    <path clip-path="url(#pefd400a8a3)" d="M 100.388571 69.325714 
L 131.451429 69.325714 
L 131.451429 100.388571 
L 100.388571 100.388571 
L 100.388571 69.325714 
" style="fill:#dbe9f6;stroke:#ffffff;stroke-width:0.1;"/>
    <path clip-path="url(#pefd400a8a3)" d="M 131.451429 69.325714 
L 162.514286 69.325714 
L 162.514286 100.388571 
L 131.451429 100.388571 
L 131.451429 69.325714 
" style="fill:#ddeaf7;stroke:#ffffff;stroke-width:0.1;"/>
    <path clip-path="url(#pefd400a8a3)" d="M 162.514286 69.325714 
L 193.577143 69.325714 
L 193.577143 100.388571 
L 162.514286 100.388571 
L 162.514286 69.325714 
" style="fill:#f7fbff;stroke:#ffffff;stroke-width:0.1;"/>
    <path clip-path="url(#pefd400a8a3)" d="M 193.577143 69.325714 
L 224.64 69.325714 
L 224.64 100.388571 
L 193.577143 100.388571 
L 193.577143 69.325714 
" style="fill:#89bedc;stroke:#ffffff;stroke-width:0.1;"/>
    <path clip-path="url(#pefd400a8a3)" d="M 7.2 100.388571 
L 38.262857 100.388571 
L 38.262857 131.451429 
L 7.2 131.451429 
L 7.2 100.388571 
" style="fill:#d1e2f3;stroke:#ffffff;stroke-width:0.1;"/>
    <path clip-path="url(#pefd400a8a3)" d="M 38.262857 100.388571 
L 69.325714 100.388571 
L 69.325714 131.451429 
L 38.262857 131.451429 
L 38.262857 100.388571 
" style="fill:#d9e8f5;stroke:#ffffff;stroke-width:0.1;"/>
    <path clip-path="url(#pefd400a8a3)" d="M 69.325714 100.388571 
L 100.388571 100.388571 
L 100.388571 131.451429 
L 69.325714 131.451429 
L 69.325714 100.388571 
" style="fill:#dbe9f6;stroke:#ffffff;stroke-width:0.1;"/>
    <path clip-path="url(#pefd400a8a3)" d="M 100.388571 100.388571 
L 131.451429 100.388571 
L 131.451429 131.451429 
L 100.388571 131.451429 
L 100.388571 100.388571 
" style="fill:#e0ecf8;stroke:#ffffff;stroke-width:0.1;"/>
    <path clip-path="url(#pefd400a8a3)" d="M 131.451429 100.388571 
L 162.514286 100.388571 
L 162.514286 131.451429 
L 131.451429 131.451429 
L 131.451429 100.388571 
" style="fill:#e7f1fa;stroke:#ffffff;stroke-width:0.1;"/>
    <path clip-path="url(#pefd400a8a3)" d="M 162.514286 100.388571 
L 193.577143 100.388571 
L 193.577143 131.451429 
L 162.514286 131.451429 
L 162.514286 100.388571 
" style="fill:#d0e2f2;stroke:#ffffff;stroke-width:0.1;"/>
    <path clip-path="url(#pefd400a8a3)" d="M 193.577143 100.388571 
L 224.64 100.388571 
L 224.64 131.451429 
L 193.577143 131.451429 
L 193.577143 100.388571 
" style="fill:#e0ecf8;stroke:#ffffff;stroke-width:0.1;"/>
    <path clip-path="url(#pefd400a8a3)" d="M 7.2 131.451429 
L 38.262857 131.451429 
L 38.262857 162.514286 
L 7.2 162.514286 
L 7.2 131.451429 
" style="fill:#deebf7;stroke:#ffffff;stroke-width:0.1;"/>
    <path clip-path="url(#pefd400a8a3)" d="M 38.262857 131.451429 
L 69.325714 131.451429 
L 69.325714 162.514286 
L 38.262857 162.514286 
L 38.262857 131.451429 
" style="fill:#e4eff9;stroke:#ffffff;stroke-width:0.1;"/>
    <path clip-path="url(#pefd400a8a3)" d="M 69.325714 131.451429 
L 100.388571 131.451429 
L 100.388571 162.514286 
L 69.325714 162.514286 
L 69.325714 131.451429 
" style="fill:#cbdef1;stroke:#ffffff;stroke-width:0.1;"/>
    <path clip-path="url(#pefd400a8a3)" d="M 100.388571 131.451429 
L 131.451429 131.451429 
L 131.451429 162.514286 
L 100.388571 162.514286 
L 100.388571 131.451429 
" style="fill:#e8f1fa;stroke:#ffffff;stroke-width:0.1;"/>
    <path clip-path="url(#pefd400a8a3)" d="M 131.451429 131.451429 
L 162.514286 131.451429 
L 162.514286 162.514286 
L 131.451429 162.514286 
L 131.451429 131.451429 
" style="fill:#d8e7f5;stroke:#ffffff;stroke-width:0.1;"/>
    <path clip-path="url(#pefd400a8a3)" d="M 162.514286 131.451429 
L 193.577143 131.451429 
L 193.577143 162.514286 
L 162.514286 162.514286 
L 162.514286 131.451429 
" style="fill:#afd1e7;stroke:#ffffff;stroke-width:0.1;"/>
    <path clip-path="url(#pefd400a8a3)" d="M 193.577143 131.451429 
L 224.64 131.451429 
L 224.64 162.514286 
L 193.577143 162.514286 
L 193.577143 131.451429 
" style="fill:#e0ecf8;stroke:#ffffff;stroke-width:0.1;"/>
    <path clip-path="url(#pefd400a8a3)" d="M 7.2 162.514286 
L 38.262857 162.514286 
L 38.262857 193.577143 
L 7.2 193.577143 
L 7.2 162.514286 
" style="fill:#eef5fc;stroke:#ffffff;stroke-width:0.1;"/>
    <path clip-path="url(#pefd400a8a3)" d="M 38.262857 162.514286 
L 69.325714 162.514286 
L 69.325714 193.577143 
L 38.262857 193.577143 
L 38.262857 162.514286 
" style="fill:#aacfe5;stroke:#ffffff;stroke-width:0.1;"/>
    <path clip-path="url(#pefd400a8a3)" d="M 69.325714 162.514286 
L 100.388571 162.514286 
L 100.388571 193.577143 
L 69.325714 193.577143 
L 69.325714 162.514286 
" style="fill:#f7fbff;stroke:#ffffff;stroke-width:0.1;"/>
    <path clip-path="url(#pefd400a8a3)" d="M 100.388571 162.514286 
L 131.451429 162.514286 
L 131.451429 193.577143 
L 100.388571 193.577143 
L 100.388571 162.514286 
" style="fill:#a3cce3;stroke:#ffffff;stroke-width:0.1;"/>
    <path clip-path="url(#pefd400a8a3)" d="M 131.451429 162.514286 
L 162.514286 162.514286 
L 162.514286 193.577143 
L 131.451429 193.577143 
L 131.451429 162.514286 
" style="fill:#d7e6f5;stroke:#ffffff;stroke-width:0.1;"/>
    <path clip-path="url(#pefd400a8a3)" d="M 162.514286 162.514286 
L 193.577143 162.514286 
L 193.577143 193.577143 
L 162.514286 193.577143 
L 162.514286 162.514286 
" style="fill:#d8e7f5;stroke:#ffffff;stroke-width:0.1;"/>
    <path clip-path="url(#pefd400a8a3)" d="M 193.577143 162.514286 
L 224.64 162.514286 
L 224.64 193.577143 
L 193.577143 193.577143 
L 193.577143 162.514286 
" style="fill:#85bcdc;stroke:#ffffff;stroke-width:0.1;"/>
    <path clip-path="url(#pefd400a8a3)" d="M 7.2 193.577143 
L 38.262857 193.577143 
L 38.262857 224.64 
L 7.2 224.64 
L 7.2 193.577143 
" style="fill:#d9e7f5;stroke:#ffffff;stroke-width:0.1;"/>
    <path clip-path="url(#pefd400a8a3)" d="M 38.262857 193.577143 
L 69.325714 193.577143 
L 69.325714 224.64 
L 38.262857 224.64 
L 38.262857 193.577143 
" style="fill:#e1edf8;stroke:#ffffff;stroke-width:0.1;"/>
    <path clip-path="url(#pefd400a8a3)" d="M 69.325714 193.577143 
L 100.388571 193.577143 
L 100.388571 224.64 
L 69.325714 224.64 
L 69.325714 193.577143 
" style="fill:#d7e6f5;stroke:#ffffff;stroke-width:0.1;"/>
    <path clip-path="url(#pefd400a8a3)" d="M 100.388571 193.577143 
L 131.451429 193.577143 
L 131.451429 224.64 
L 100.388571 224.64 
L 100.388571 193.577143 
" style="fill:none;stroke:#ffffff;stroke-width:0.1;"/>
    <path clip-path="url(#pefd400a8a3)" d="M 131.451429 193.577143 
L 162.514286 193.577143 
L 162.514286 224.64 
L 131.451429 224.64 
L 131.451429 193.577143 
" style="fill:none;stroke:#ffffff;stroke-width:0.1;"/>
    <path clip-path="url(#pefd400a8a3)" d="M 162.514286 193.577143 
L 193.577143 193.577143 
L 193.577143 224.64 
L 162.514286 224.64 
L 162.514286 193.577143 
" style="fill:none;stroke:#ffffff;stroke-width:0.1;"/>
    <path clip-path="url(#pefd400a8a3)" d="M 193.577143 193.577143 
L 224.64 193.577143 
L 224.64 224.64 
L 193.577143 224.64 
L 193.577143 193.577143 
" style="fill:none;stroke:#ffffff;stroke-width:0.1;"/>
   </g>
   <g id="text_1">
    <!-- Jan -->
    <g style="fill:#ffffff;" transform="translate(13.058304 25.833616)scale(0.12 -0.12)">
     <defs>
      <path d="M 2.875 20.3125 
L 11.421875 21.484375 
Q 11.765625 13.28125 14.5 10.25 
Q 17.234375 7.234375 22.078125 7.234375 
Q 25.640625 7.234375 28.21875 8.859375 
Q 30.8125 10.5 31.78125 13.296875 
Q 32.765625 16.109375 32.765625 22.265625 
L 32.765625 71.578125 
L 42.234375 71.578125 
L 42.234375 22.796875 
Q 42.234375 13.8125 40.0625 8.875 
Q 37.890625 3.953125 33.171875 1.359375 
Q 28.46875 -1.21875 22.125 -1.21875 
Q 12.703125 -1.21875 7.6875 4.203125 
Q 2.6875 9.625 2.875 20.3125 
z
" id="ArialMT-74"/>
      <path d="M 40.4375 6.390625 
Q 35.546875 2.25 31.03125 0.53125 
Q 26.515625 -1.171875 21.34375 -1.171875 
Q 12.796875 -1.171875 8.203125 3 
Q 3.609375 7.171875 3.609375 13.671875 
Q 3.609375 17.484375 5.34375 20.625 
Q 7.078125 23.78125 9.890625 25.6875 
Q 12.703125 27.59375 16.21875 28.5625 
Q 18.796875 29.25 24.03125 29.890625 
Q 34.671875 31.15625 39.703125 32.90625 
Q 39.75 34.71875 39.75 35.203125 
Q 39.75 40.578125 37.25 42.78125 
Q 33.890625 45.75 27.25 45.75 
Q 21.046875 45.75 18.09375 43.578125 
Q 15.140625 41.40625 13.71875 35.890625 
L 5.125 37.0625 
Q 6.296875 42.578125 8.984375 45.96875 
Q 11.671875 49.359375 16.75 51.1875 
Q 21.828125 53.03125 28.515625 53.03125 
Q 35.15625 53.03125 39.296875 51.46875 
Q 43.453125 49.90625 45.40625 47.53125 
Q 47.359375 45.171875 48.140625 41.546875 
Q 48.578125 39.3125 48.578125 33.453125 
L 48.578125 21.734375 
Q 48.578125 9.46875 49.140625 6.21875 
Q 49.703125 2.984375 51.375 0 
L 42.1875 0 
Q 40.828125 2.734375 40.4375 6.390625 
z
M 39.703125 26.03125 
Q 34.90625 24.078125 25.34375 22.703125 
Q 19.921875 21.921875 17.671875 20.9375 
Q 15.4375 19.96875 14.203125 18.09375 
Q 12.984375 16.21875 12.984375 13.921875 
Q 12.984375 10.40625 15.640625 8.0625 
Q 18.3125 5.71875 23.4375 5.71875 
Q 28.515625 5.71875 32.46875 7.9375 
Q 36.421875 10.15625 38.28125 14.015625 
Q 39.703125 17 39.703125 22.796875 
z
" id="ArialMT-97"/>
      <path d="M 6.59375 0 
L 6.59375 51.859375 
L 14.5 51.859375 
L 14.5 44.484375 
Q 20.21875 53.03125 31 53.03125 
Q 35.6875 53.03125 39.625 51.34375 
Q 43.5625 49.65625 45.515625 46.921875 
Q 47.46875 44.1875 48.25 40.4375 
Q 48.734375 37.984375 48.734375 31.890625 
L 48.734375 0 
L 39.9375 0 
L 39.9375 31.546875 
Q 39.9375 36.921875 38.90625 39.578125 
Q 37.890625 42.234375 35.28125 43.8125 
Q 32.671875 45.40625 29.15625 45.40625 
Q 23.53125 45.40625 19.453125 41.84375 
Q 15.375 38.28125 15.375 28.328125 
L 15.375 0 
z
" id="ArialMT-110"/>
     </defs>
     <use xlink:href="#ArialMT-74"/>
     <use x="50" xlink:href="#ArialMT-97"/>
     <use x="105.615234" xlink:href="#ArialMT-110"/>
    </g>
   </g>
   <g id="text_2">
    <!-- Feb -->
    <g style="fill:#262626;" transform="translate(43.456473 25.833616)scale(0.12 -0.12)">
     <defs>
      <path d="M 8.203125 0 
L 8.203125 71.578125 
L 56.5 71.578125 
L 56.5 63.140625 
L 17.671875 63.140625 
L 17.671875 40.96875 
L 51.265625 40.96875 
L 51.265625 32.515625 
L 17.671875 32.515625 
L 17.671875 0 
z
" id="ArialMT-70"/>
      <path d="M 42.09375 16.703125 
L 51.171875 15.578125 
Q 49.03125 7.625 43.21875 3.21875 
Q 37.40625 -1.171875 28.375 -1.171875 
Q 17 -1.171875 10.328125 5.828125 
Q 3.65625 12.84375 3.65625 25.484375 
Q 3.65625 38.578125 10.390625 45.796875 
Q 17.140625 53.03125 27.875 53.03125 
Q 38.28125 53.03125 44.875 45.953125 
Q 51.46875 38.875 51.46875 26.03125 
Q 51.46875 25.25 51.421875 23.6875 
L 12.75 23.6875 
Q 13.234375 15.140625 17.578125 10.59375 
Q 21.921875 6.0625 28.421875 6.0625 
Q 33.25 6.0625 36.671875 8.59375 
Q 40.09375 11.140625 42.09375 16.703125 
z
M 13.234375 30.90625 
L 42.1875 30.90625 
Q 41.609375 37.453125 38.875 40.71875 
Q 34.671875 45.796875 27.984375 45.796875 
Q 21.921875 45.796875 17.796875 41.75 
Q 13.671875 37.703125 13.234375 30.90625 
z
" id="ArialMT-101"/>
      <path d="M 14.703125 0 
L 6.546875 0 
L 6.546875 71.578125 
L 15.328125 71.578125 
L 15.328125 46.046875 
Q 20.90625 53.03125 29.546875 53.03125 
Q 34.328125 53.03125 38.59375 51.09375 
Q 42.875 49.171875 45.625 45.671875 
Q 48.390625 42.1875 49.953125 37.25 
Q 51.515625 32.328125 51.515625 26.703125 
Q 51.515625 13.375 44.921875 6.09375 
Q 38.328125 -1.171875 29.109375 -1.171875 
Q 19.921875 -1.171875 14.703125 6.5 
z
M 14.59375 26.3125 
Q 14.59375 17 17.140625 12.84375 
Q 21.296875 6.0625 28.375 6.0625 
Q 34.125 6.0625 38.328125 11.0625 
Q 42.53125 16.0625 42.53125 25.984375 
Q 42.53125 36.140625 38.5 40.96875 
Q 34.46875 45.796875 28.765625 45.796875 
Q 23 45.796875 18.796875 40.796875 
Q 14.59375 35.796875 14.59375 26.3125 
z
" id="ArialMT-98"/>
     </defs>
     <use xlink:href="#ArialMT-70"/>
     <use x="61.083984" xlink:href="#ArialMT-101"/>
     <use x="116.699219" xlink:href="#ArialMT-98"/>
    </g>
   </g>
   <g id="text_3">
    <!-- Mar -->
    <g style="fill:#262626;" transform="translate(74.524955 25.833616)scale(0.12 -0.12)">
     <defs>
      <path d="M 7.421875 0 
L 7.421875 71.578125 
L 21.6875 71.578125 
L 38.625 20.90625 
Q 40.96875 13.8125 42.046875 10.296875 
Q 43.265625 14.203125 45.84375 21.78125 
L 62.984375 71.578125 
L 75.734375 71.578125 
L 75.734375 0 
L 66.609375 0 
L 66.609375 59.90625 
L 45.796875 0 
L 37.25 0 
L 16.546875 60.9375 
L 16.546875 0 
z
" id="ArialMT-77"/>
      <path d="M 6.5 0 
L 6.5 51.859375 
L 14.40625 51.859375 
L 14.40625 44 
Q 17.4375 49.515625 20 51.265625 
Q 22.5625 53.03125 25.640625 53.03125 
Q 30.078125 53.03125 34.671875 50.203125 
L 31.640625 42.046875 
Q 28.421875 43.953125 25.203125 43.953125 
Q 22.3125 43.953125 20.015625 42.21875 
Q 17.71875 40.484375 16.75 37.40625 
Q 15.28125 32.71875 15.28125 27.15625 
L 15.28125 0 
z
" id="ArialMT-114"/>
     </defs>
     <use xlink:href="#ArialMT-77"/>
     <use x="83.300781" xlink:href="#ArialMT-97"/>
     <use x="138.916016" xlink:href="#ArialMT-114"/>
    </g>
   </g>
   <g id="text_4">
    <!-- Apr -->
    <g style="fill:#ffffff;" transform="translate(106.583438 25.833616)scale(0.12 -0.12)">
     <defs>
      <path d="M -0.140625 0 
L 27.34375 71.578125 
L 37.546875 71.578125 
L 66.84375 0 
L 56.0625 0 
L 47.703125 21.6875 
L 17.78125 21.6875 
L 9.90625 0 
z
M 20.515625 29.390625 
L 44.78125 29.390625 
L 37.3125 49.21875 
Q 33.890625 58.25 32.234375 64.0625 
Q 30.859375 57.171875 28.375 50.390625 
z
" id="ArialMT-65"/>
      <path d="M 6.59375 -19.875 
L 6.59375 51.859375 
L 14.59375 51.859375 
L 14.59375 45.125 
Q 17.4375 49.078125 21 51.046875 
Q 24.5625 53.03125 29.640625 53.03125 
Q 36.28125 53.03125 41.359375 49.609375 
Q 46.4375 46.1875 49.015625 39.953125 
Q 51.609375 33.734375 51.609375 26.3125 
Q 51.609375 18.359375 48.75 11.984375 
Q 45.90625 5.609375 40.453125 2.21875 
Q 35.015625 -1.171875 29 -1.171875 
Q 24.609375 -1.171875 21.109375 0.6875 
Q 17.625 2.546875 15.375 5.375 
L 15.375 -19.875 
z
M 14.546875 25.640625 
Q 14.546875 15.625 18.59375 10.84375 
Q 22.65625 6.0625 28.421875 6.0625 
Q 34.28125 6.0625 38.453125 11.015625 
Q 42.625 15.96875 42.625 26.375 
Q 42.625 36.28125 38.546875 41.203125 
Q 34.46875 46.140625 28.8125 46.140625 
Q 23.1875 46.140625 18.859375 40.890625 
Q 14.546875 35.640625 14.546875 25.640625 
z
" id="ArialMT-112"/>
     </defs>
     <use xlink:href="#ArialMT-65"/>
     <use x="66.699219" xlink:href="#ArialMT-112"/>
     <use x="122.314453" xlink:href="#ArialMT-114"/>
    </g>
   </g>
   <g id="text_5">
    <!-- May -->
    <g style="fill:#ffffff;" transform="translate(135.648482 25.763304)scale(0.12 -0.12)">
     <defs>
      <path d="M 6.203125 -19.96875 
L 5.21875 -11.71875 
Q 8.109375 -12.5 10.25 -12.5 
Q 13.1875 -12.5 14.9375 -11.515625 
Q 16.703125 -10.546875 17.828125 -8.796875 
Q 18.65625 -7.46875 20.515625 -2.25 
Q 20.75 -1.515625 21.296875 -0.09375 
L 1.609375 51.859375 
L 11.078125 51.859375 
L 21.875 21.828125 
Q 23.96875 16.109375 25.640625 9.8125 
Q 27.15625 15.875 29.25 21.625 
L 40.328125 51.859375 
L 49.125 51.859375 
L 29.390625 -0.875 
Q 26.21875 -9.421875 24.46875 -12.640625 
Q 22.125 -17 19.09375 -19.015625 
Q 16.0625 -21.046875 11.859375 -21.046875 
Q 9.328125 -21.046875 6.203125 -19.96875 
z
" id="ArialMT-121"/>
     </defs>
     <use xlink:href="#ArialMT-77"/>
     <use x="83.300781" xlink:href="#ArialMT-97"/>
     <use x="138.916016" xlink:href="#ArialMT-121"/>
    </g>
   </g>
   <g id="text_6">
    <!-- Jun -->
    <g style="fill:#ffffff;" transform="translate(168.372589 25.833616)scale(0.12 -0.12)">
     <defs>
      <path d="M 40.578125 0 
L 40.578125 7.625 
Q 34.515625 -1.171875 24.125 -1.171875 
Q 19.53125 -1.171875 15.546875 0.578125 
Q 11.578125 2.34375 9.640625 5 
Q 7.71875 7.671875 6.9375 11.53125 
Q 6.390625 14.109375 6.390625 19.734375 
L 6.390625 51.859375 
L 15.1875 51.859375 
L 15.1875 23.09375 
Q 15.1875 16.21875 15.71875 13.8125 
Q 16.546875 10.359375 19.234375 8.375 
Q 21.921875 6.390625 25.875 6.390625 
Q 29.828125 6.390625 33.296875 8.421875 
Q 36.765625 10.453125 38.203125 13.9375 
Q 39.65625 17.4375 39.65625 24.078125 
L 39.65625 51.859375 
L 48.4375 51.859375 
L 48.4375 0 
z
" id="ArialMT-117"/>
     </defs>
     <use xlink:href="#ArialMT-74"/>
     <use x="50" xlink:href="#ArialMT-117"/>
     <use x="105.615234" xlink:href="#ArialMT-110"/>
    </g>
   </g>
   <g id="text_7">
    <!-- Jul -->
    <g style="fill:#ffffff;" transform="translate(15.061741 56.896473)scale(0.12 -0.12)">
     <defs>
      <path d="M 6.390625 0 
L 6.390625 71.578125 
L 15.1875 71.578125 
L 15.1875 0 
z
" id="ArialMT-108"/>
     </defs>
     <use xlink:href="#ArialMT-74"/>
     <use x="50" xlink:href="#ArialMT-117"/>
     <use x="105.615234" xlink:href="#ArialMT-108"/>
    </g>
   </g>
   <g id="text_8">
    <!-- Aug -->
    <g style="fill:#ffffff;" transform="translate(43.118973 56.826161)scale(0.12 -0.12)">
     <defs>
      <path d="M 4.984375 -4.296875 
L 13.53125 -5.5625 
Q 14.0625 -9.515625 16.5 -11.328125 
Q 19.78125 -13.765625 25.4375 -13.765625 
Q 31.546875 -13.765625 34.859375 -11.328125 
Q 38.1875 -8.890625 39.359375 -4.5 
Q 40.046875 -1.8125 39.984375 6.78125 
Q 34.234375 0 25.640625 0 
Q 14.9375 0 9.078125 7.71875 
Q 3.21875 15.4375 3.21875 26.21875 
Q 3.21875 33.640625 5.90625 39.90625 
Q 8.59375 46.1875 13.6875 49.609375 
Q 18.796875 53.03125 25.6875 53.03125 
Q 34.859375 53.03125 40.828125 45.609375 
L 40.828125 51.859375 
L 48.921875 51.859375 
L 48.921875 7.03125 
Q 48.921875 -5.078125 46.453125 -10.125 
Q 44 -15.1875 38.640625 -18.109375 
Q 33.296875 -21.046875 25.484375 -21.046875 
Q 16.21875 -21.046875 10.5 -16.875 
Q 4.78125 -12.703125 4.984375 -4.296875 
z
M 12.25 26.859375 
Q 12.25 16.65625 16.296875 11.96875 
Q 20.359375 7.28125 26.46875 7.28125 
Q 32.515625 7.28125 36.609375 11.9375 
Q 40.71875 16.609375 40.71875 26.5625 
Q 40.71875 36.078125 36.5 40.90625 
Q 32.28125 45.75 26.3125 45.75 
Q 20.453125 45.75 16.34375 40.984375 
Q 12.25 36.234375 12.25 26.859375 
z
" id="ArialMT-103"/>
     </defs>
     <use xlink:href="#ArialMT-65"/>
     <use x="66.699219" xlink:href="#ArialMT-117"/>
     <use x="122.314453" xlink:href="#ArialMT-103"/>
    </g>
   </g>
   <g id="text_9">
    <!-- Sep -->
    <g style="fill:#262626;" transform="translate(74.18183 56.969598)scale(0.12 -0.12)">
     <defs>
      <path d="M 4.5 23 
L 13.421875 23.78125 
Q 14.0625 18.40625 16.375 14.96875 
Q 18.703125 11.53125 23.578125 9.40625 
Q 28.46875 7.28125 34.578125 7.28125 
Q 39.984375 7.28125 44.140625 8.890625 
Q 48.296875 10.5 50.3125 13.296875 
Q 52.34375 16.109375 52.34375 19.4375 
Q 52.34375 22.796875 50.390625 25.3125 
Q 48.4375 27.828125 43.953125 29.546875 
Q 41.0625 30.671875 31.203125 33.03125 
Q 21.34375 35.40625 17.390625 37.5 
Q 12.25 40.1875 9.734375 44.15625 
Q 7.234375 48.140625 7.234375 53.078125 
Q 7.234375 58.5 10.296875 63.203125 
Q 13.375 67.921875 19.28125 70.359375 
Q 25.203125 72.796875 32.421875 72.796875 
Q 40.375 72.796875 46.453125 70.234375 
Q 52.546875 67.671875 55.8125 62.6875 
Q 59.078125 57.71875 59.328125 51.421875 
L 50.25 50.734375 
Q 49.515625 57.515625 45.28125 60.984375 
Q 41.0625 64.453125 32.8125 64.453125 
Q 24.21875 64.453125 20.28125 61.296875 
Q 16.359375 58.15625 16.359375 53.71875 
Q 16.359375 49.859375 19.140625 47.359375 
Q 21.875 44.875 33.421875 42.265625 
Q 44.96875 39.65625 49.265625 37.703125 
Q 55.515625 34.8125 58.484375 30.390625 
Q 61.46875 25.984375 61.46875 20.21875 
Q 61.46875 14.5 58.203125 9.4375 
Q 54.9375 4.390625 48.796875 1.578125 
Q 42.671875 -1.21875 35.015625 -1.21875 
Q 25.296875 -1.21875 18.71875 1.609375 
Q 12.15625 4.4375 8.421875 10.125 
Q 4.6875 15.828125 4.5 23 
z
" id="ArialMT-83"/>
     </defs>
     <use xlink:href="#ArialMT-83"/>
     <use x="66.699219" xlink:href="#ArialMT-101"/>
     <use x="122.314453" xlink:href="#ArialMT-112"/>
    </g>
   </g>
   <g id="text_10">
    <!-- Oct -->
    <g style="fill:#262626;" transform="translate(106.58625 56.896473)scale(0.12 -0.12)">
     <defs>
      <path d="M 4.828125 34.859375 
Q 4.828125 52.6875 14.390625 62.765625 
Q 23.96875 72.859375 39.109375 72.859375 
Q 49.03125 72.859375 56.984375 68.109375 
Q 64.9375 63.375 69.109375 54.90625 
Q 73.296875 46.4375 73.296875 35.6875 
Q 73.296875 24.8125 68.890625 16.21875 
Q 64.5 7.625 56.4375 3.203125 
Q 48.390625 -1.21875 39.0625 -1.21875 
Q 28.953125 -1.21875 20.984375 3.65625 
Q 13.03125 8.546875 8.921875 16.984375 
Q 4.828125 25.4375 4.828125 34.859375 
z
M 14.59375 34.71875 
Q 14.59375 21.78125 21.546875 14.328125 
Q 28.515625 6.890625 39.015625 6.890625 
Q 49.703125 6.890625 56.609375 14.40625 
Q 63.53125 21.921875 63.53125 35.75 
Q 63.53125 44.484375 60.578125 51 
Q 57.625 57.515625 51.921875 61.109375 
Q 46.234375 64.703125 39.15625 64.703125 
Q 29.109375 64.703125 21.84375 57.78125 
Q 14.59375 50.875 14.59375 34.71875 
z
" id="ArialMT-79"/>
      <path d="M 40.4375 19 
L 49.078125 17.875 
Q 47.65625 8.9375 41.8125 3.875 
Q 35.984375 -1.171875 27.484375 -1.171875 
Q 16.84375 -1.171875 10.375 5.78125 
Q 3.90625 12.75 3.90625 25.734375 
Q 3.90625 34.125 6.6875 40.421875 
Q 9.46875 46.734375 15.15625 49.875 
Q 20.84375 53.03125 27.546875 53.03125 
Q 35.984375 53.03125 41.359375 48.75 
Q 46.734375 44.484375 48.25 36.625 
L 39.703125 35.296875 
Q 38.484375 40.53125 35.375 43.15625 
Q 32.28125 45.796875 27.875 45.796875 
Q 21.234375 45.796875 17.078125 41.03125 
Q 12.9375 36.28125 12.9375 25.984375 
Q 12.9375 15.53125 16.9375 10.796875 
Q 20.953125 6.0625 27.390625 6.0625 
Q 32.5625 6.0625 36.03125 9.234375 
Q 39.5 12.40625 40.4375 19 
z
" id="ArialMT-99"/>
      <path d="M 25.78125 7.859375 
L 27.046875 0.09375 
Q 23.34375 -0.6875 20.40625 -0.6875 
Q 15.625 -0.6875 12.984375 0.828125 
Q 10.359375 2.34375 9.28125 4.8125 
Q 8.203125 7.28125 8.203125 15.1875 
L 8.203125 45.015625 
L 1.765625 45.015625 
L 1.765625 51.859375 
L 8.203125 51.859375 
L 8.203125 64.703125 
L 16.9375 69.96875 
L 16.9375 51.859375 
L 25.78125 51.859375 
L 25.78125 45.015625 
L 16.9375 45.015625 
L 16.9375 14.703125 
Q 16.9375 10.9375 17.40625 9.859375 
Q 17.875 8.796875 18.921875 8.15625 
Q 19.96875 7.515625 21.921875 7.515625 
Q 23.390625 7.515625 25.78125 7.859375 
z
" id="ArialMT-116"/>
     </defs>
     <use xlink:href="#ArialMT-79"/>
     <use x="77.783203" xlink:href="#ArialMT-99"/>
     <use x="127.783203" xlink:href="#ArialMT-116"/>
    </g>
   </g>
   <g id="text_11">
    <!-- Nov -->
    <g style="fill:#ffffff;" transform="translate(136.31317 56.896473)scale(0.12 -0.12)">
     <defs>
      <path d="M 7.625 0 
L 7.625 71.578125 
L 17.328125 71.578125 
L 54.9375 15.375 
L 54.9375 71.578125 
L 64.015625 71.578125 
L 64.015625 0 
L 54.296875 0 
L 16.703125 56.25 
L 16.703125 0 
z
" id="ArialMT-78"/>
      <path d="M 3.328125 25.921875 
Q 3.328125 40.328125 11.328125 47.265625 
Q 18.015625 53.03125 27.640625 53.03125 
Q 38.328125 53.03125 45.109375 46.015625 
Q 51.90625 39.015625 51.90625 26.65625 
Q 51.90625 16.65625 48.90625 10.90625 
Q 45.90625 5.171875 40.15625 2 
Q 34.421875 -1.171875 27.640625 -1.171875 
Q 16.75 -1.171875 10.03125 5.8125 
Q 3.328125 12.796875 3.328125 25.921875 
z
M 12.359375 25.921875 
Q 12.359375 15.96875 16.703125 11.015625 
Q 21.046875 6.0625 27.640625 6.0625 
Q 34.1875 6.0625 38.53125 11.03125 
Q 42.875 16.015625 42.875 26.21875 
Q 42.875 35.84375 38.5 40.796875 
Q 34.125 45.75 27.640625 45.75 
Q 21.046875 45.75 16.703125 40.8125 
Q 12.359375 35.890625 12.359375 25.921875 
z
" id="ArialMT-111"/>
      <path d="M 21 0 
L 1.265625 51.859375 
L 10.546875 51.859375 
L 21.6875 20.796875 
Q 23.484375 15.765625 25 10.359375 
Q 26.171875 14.453125 28.265625 20.21875 
L 39.796875 51.859375 
L 48.828125 51.859375 
L 29.203125 0 
z
" id="ArialMT-118"/>
     </defs>
     <use xlink:href="#ArialMT-78"/>
     <use x="72.216797" xlink:href="#ArialMT-111"/>
     <use x="127.832031" xlink:href="#ArialMT-118"/>
    </g>
   </g>
   <g id="text_12">
    <!-- Dec -->
    <g style="fill:#ffffff;" transform="translate(167.376027 56.896473)scale(0.12 -0.12)">
     <defs>
      <path d="M 7.71875 0 
L 7.71875 71.578125 
L 32.375 71.578125 
Q 40.71875 71.578125 45.125 70.5625 
Q 51.265625 69.140625 55.609375 65.4375 
Q 61.28125 60.640625 64.078125 53.1875 
Q 66.890625 45.75 66.890625 36.1875 
Q 66.890625 28.03125 64.984375 21.734375 
Q 63.09375 15.4375 60.109375 11.296875 
Q 57.125 7.171875 53.578125 4.796875 
Q 50.046875 2.4375 45.046875 1.21875 
Q 40.046875 0 33.546875 0 
z
M 17.1875 8.453125 
L 32.46875 8.453125 
Q 39.546875 8.453125 43.578125 9.765625 
Q 47.609375 11.078125 50 13.484375 
Q 53.375 16.84375 55.25 22.53125 
Q 57.125 28.21875 57.125 36.328125 
Q 57.125 47.5625 53.4375 53.59375 
Q 49.75 59.625 44.484375 61.671875 
Q 40.671875 63.140625 32.234375 63.140625 
L 17.1875 63.140625 
z
" id="ArialMT-68"/>
     </defs>
     <use xlink:href="#ArialMT-68"/>
     <use x="72.216797" xlink:href="#ArialMT-101"/>
     <use x="127.832031" xlink:href="#ArialMT-99"/>
    </g>
   </g>
   <g id="text_13">
    <!-- 1 -->
    <g style="fill:#262626;" transform="translate(19.394866 87.95933)scale(0.12 -0.12)">
     <defs>
      <path d="M 37.25 0 
L 28.46875 0 
L 28.46875 56 
Q 25.296875 52.984375 20.140625 49.953125 
Q 14.984375 46.921875 10.890625 45.40625 
L 10.890625 53.90625 
Q 18.265625 57.375 23.78125 62.296875 
Q 29.296875 67.234375 31.59375 71.875 
L 37.25 71.875 
z
" id="ArialMT-49"/>
     </defs>
     <use xlink:href="#ArialMT-49"/>
    </g>
   </g>
   <g id="text_14">
    <!-- 2 -->
    <g style="fill:#262626;" transform="translate(50.457723 87.95933)scale(0.12 -0.12)">
     <defs>
      <path d="M 50.34375 8.453125 
L 50.34375 0 
L 3.03125 0 
Q 2.9375 3.171875 4.046875 6.109375 
Q 5.859375 10.9375 9.828125 15.625 
Q 13.8125 20.3125 21.34375 26.46875 
Q 33.015625 36.03125 37.109375 41.625 
Q 41.21875 47.21875 41.21875 52.203125 
Q 41.21875 57.421875 37.46875 61 
Q 33.734375 64.59375 27.734375 64.59375 
Q 21.390625 64.59375 17.578125 60.78125 
Q 13.765625 56.984375 13.71875 50.25 
L 4.6875 51.171875 
Q 5.609375 61.28125 11.65625 66.578125 
Q 17.71875 71.875 27.9375 71.875 
Q 38.234375 71.875 44.234375 66.15625 
Q 50.25 60.453125 50.25 52 
Q 50.25 47.703125 48.484375 43.546875 
Q 46.734375 39.40625 42.65625 34.8125 
Q 38.578125 30.21875 29.109375 22.21875 
Q 21.1875 15.578125 18.9375 13.203125 
Q 16.703125 10.84375 15.234375 8.453125 
z
" id="ArialMT-50"/>
     </defs>
     <use xlink:href="#ArialMT-50"/>
    </g>
   </g>
   <g id="text_15">
    <!-- 3 -->
    <g style="fill:#262626;" transform="translate(81.52058 87.95933)scale(0.12 -0.12)">
     <defs>
      <path d="M 4.203125 18.890625 
L 12.984375 20.0625 
Q 14.5 12.59375 18.140625 9.296875 
Q 21.78125 6 27 6 
Q 33.203125 6 37.46875 10.296875 
Q 41.75 14.59375 41.75 20.953125 
Q 41.75 27 37.796875 30.921875 
Q 33.84375 34.859375 27.734375 34.859375 
Q 25.25 34.859375 21.53125 33.890625 
L 22.515625 41.609375 
Q 23.390625 41.5 23.921875 41.5 
Q 29.546875 41.5 34.03125 44.421875 
Q 38.53125 47.359375 38.53125 53.46875 
Q 38.53125 58.296875 35.25 61.46875 
Q 31.984375 64.65625 26.8125 64.65625 
Q 21.6875 64.65625 18.265625 61.421875 
Q 14.84375 58.203125 13.875 51.765625 
L 5.078125 53.328125 
Q 6.6875 62.15625 12.390625 67.015625 
Q 18.109375 71.875 26.609375 71.875 
Q 32.46875 71.875 37.390625 69.359375 
Q 42.328125 66.84375 44.9375 62.5 
Q 47.5625 58.15625 47.5625 53.265625 
Q 47.5625 48.640625 45.0625 44.828125 
Q 42.578125 41.015625 37.703125 38.765625 
Q 44.046875 37.3125 47.5625 32.6875 
Q 51.078125 28.078125 51.078125 21.140625 
Q 51.078125 11.765625 44.234375 5.25 
Q 37.40625 -1.265625 26.953125 -1.265625 
Q 17.53125 -1.265625 11.296875 4.34375 
Q 5.078125 9.96875 4.203125 18.890625 
z
" id="ArialMT-51"/>
     </defs>
     <use xlink:href="#ArialMT-51"/>
    </g>
   </g>
   <g id="text_16">
    <!-- 4 -->
    <g style="fill:#262626;" transform="translate(112.583438 87.95933)scale(0.12 -0.12)">
     <defs>
      <path d="M 32.328125 0 
L 32.328125 17.140625 
L 1.265625 17.140625 
L 1.265625 25.203125 
L 33.9375 71.578125 
L 41.109375 71.578125 
L 41.109375 25.203125 
L 50.78125 25.203125 
L 50.78125 17.140625 
L 41.109375 17.140625 
L 41.109375 0 
z
M 32.328125 25.203125 
L 32.328125 57.46875 
L 9.90625 25.203125 
z
" id="ArialMT-52"/>
     </defs>
     <use xlink:href="#ArialMT-52"/>
    </g>
   </g>
   <g id="text_17">
    <!-- 5 -->
    <g style="fill:#262626;" transform="translate(143.646295 87.95933)scale(0.12 -0.12)">
     <defs>
      <path d="M 4.15625 18.75 
L 13.375 19.53125 
Q 14.40625 12.796875 18.140625 9.390625 
Q 21.875 6 27.15625 6 
Q 33.5 6 37.890625 10.78125 
Q 42.28125 15.578125 42.28125 23.484375 
Q 42.28125 31 38.0625 35.34375 
Q 33.84375 39.703125 27 39.703125 
Q 22.75 39.703125 19.328125 37.765625 
Q 15.921875 35.84375 13.96875 32.765625 
L 5.71875 33.84375 
L 12.640625 70.609375 
L 48.25 70.609375 
L 48.25 62.203125 
L 19.671875 62.203125 
L 15.828125 42.96875 
Q 22.265625 47.46875 29.34375 47.46875 
Q 38.71875 47.46875 45.15625 40.96875 
Q 51.609375 34.46875 51.609375 24.265625 
Q 51.609375 14.546875 45.953125 7.46875 
Q 39.0625 -1.21875 27.15625 -1.21875 
Q 17.390625 -1.21875 11.203125 4.25 
Q 5.03125 9.71875 4.15625 18.75 
z
" id="ArialMT-53"/>
     </defs>
     <use xlink:href="#ArialMT-53"/>
    </g>
   </g>
   <g id="text_18">
    <!-- 6 -->
    <g style="fill:#262626;" transform="translate(174.709152 87.95933)scale(0.12 -0.12)">
     <defs>
      <path d="M 49.75 54.046875 
L 41.015625 53.375 
Q 39.84375 58.546875 37.703125 60.890625 
Q 34.125 64.65625 28.90625 64.65625 
Q 24.703125 64.65625 21.53125 62.3125 
Q 17.390625 59.28125 14.984375 53.46875 
Q 12.59375 47.65625 12.5 36.921875 
Q 15.671875 41.75 20.265625 44.09375 
Q 24.859375 46.4375 29.890625 46.4375 
Q 38.671875 46.4375 44.84375 39.96875 
Q 51.03125 33.5 51.03125 23.25 
Q 51.03125 16.5 48.125 10.71875 
Q 45.21875 4.9375 40.140625 1.859375 
Q 35.0625 -1.21875 28.609375 -1.21875 
Q 17.625 -1.21875 10.6875 6.859375 
Q 3.765625 14.9375 3.765625 33.5 
Q 3.765625 54.25 11.421875 63.671875 
Q 18.109375 71.875 29.4375 71.875 
Q 37.890625 71.875 43.28125 67.140625 
Q 48.6875 62.40625 49.75 54.046875 
z
M 13.875 23.1875 
Q 13.875 18.65625 15.796875 14.5 
Q 17.71875 10.359375 21.1875 8.171875 
Q 24.65625 6 28.46875 6 
Q 34.03125 6 38.03125 10.484375 
Q 42.046875 14.984375 42.046875 22.703125 
Q 42.046875 30.125 38.078125 34.390625 
Q 34.125 38.671875 28.125 38.671875 
Q 22.171875 38.671875 18.015625 34.390625 
Q 13.875 30.125 13.875 23.1875 
z
" id="ArialMT-54"/>
     </defs>
     <use xlink:href="#ArialMT-54"/>
    </g>
   </g>
   <g id="text_19">
    <!-- 7 -->
    <g style="fill:#262626;" transform="translate(205.772009 87.95933)scale(0.12 -0.12)">
     <defs>
      <path d="M 4.734375 62.203125 
L 4.734375 70.65625 
L 51.078125 70.65625 
L 51.078125 63.8125 
Q 44.234375 56.546875 37.515625 44.484375 
Q 30.8125 32.421875 27.15625 19.671875 
Q 24.515625 10.6875 23.78125 0 
L 14.75 0 
Q 14.890625 8.453125 18.0625 20.40625 
Q 21.234375 32.375 27.171875 43.484375 
Q 33.109375 54.59375 39.796875 62.203125 
z
" id="ArialMT-55"/>
     </defs>
     <use xlink:href="#ArialMT-55"/>
    </g>
   </g>
   <g id="text_20">
    <!-- 8 -->
    <g style="fill:#262626;" transform="translate(19.394866 119.022188)scale(0.12 -0.12)">
     <defs>
      <path d="M 17.671875 38.8125 
Q 12.203125 40.828125 9.5625 44.53125 
Q 6.9375 48.25 6.9375 53.421875 
Q 6.9375 61.234375 12.546875 66.546875 
Q 18.171875 71.875 27.484375 71.875 
Q 36.859375 71.875 42.578125 66.421875 
Q 48.296875 60.984375 48.296875 53.171875 
Q 48.296875 48.1875 45.671875 44.5 
Q 43.0625 40.828125 37.75 38.8125 
Q 44.34375 36.671875 47.78125 31.875 
Q 51.21875 27.09375 51.21875 20.453125 
Q 51.21875 11.28125 44.71875 5.03125 
Q 38.234375 -1.21875 27.640625 -1.21875 
Q 17.046875 -1.21875 10.546875 5.046875 
Q 4.046875 11.328125 4.046875 20.703125 
Q 4.046875 27.6875 7.59375 32.390625 
Q 11.140625 37.109375 17.671875 38.8125 
z
M 15.921875 53.71875 
Q 15.921875 48.640625 19.1875 45.40625 
Q 22.46875 42.1875 27.6875 42.1875 
Q 32.765625 42.1875 36.015625 45.375 
Q 39.265625 48.578125 39.265625 53.21875 
Q 39.265625 58.0625 35.90625 61.359375 
Q 32.5625 64.65625 27.59375 64.65625 
Q 22.5625 64.65625 19.234375 61.421875 
Q 15.921875 58.203125 15.921875 53.71875 
z
M 13.09375 20.65625 
Q 13.09375 16.890625 14.875 13.375 
Q 16.65625 9.859375 20.171875 7.921875 
Q 23.6875 6 27.734375 6 
Q 34.03125 6 38.125 10.046875 
Q 42.234375 14.109375 42.234375 20.359375 
Q 42.234375 26.703125 38.015625 30.859375 
Q 33.796875 35.015625 27.4375 35.015625 
Q 21.234375 35.015625 17.15625 30.90625 
Q 13.09375 26.8125 13.09375 20.65625 
z
" id="ArialMT-56"/>
     </defs>
     <use xlink:href="#ArialMT-56"/>
    </g>
   </g>
   <g id="text_21">
    <!-- 9 -->
    <g style="fill:#262626;" transform="translate(50.457723 119.022188)scale(0.12 -0.12)">
     <defs>
      <path d="M 5.46875 16.546875 
L 13.921875 17.328125 
Q 14.984375 11.375 18.015625 8.6875 
Q 21.046875 6 25.78125 6 
Q 29.828125 6 32.875 7.859375 
Q 35.9375 9.71875 37.890625 12.8125 
Q 39.84375 15.921875 41.15625 21.1875 
Q 42.484375 26.46875 42.484375 31.9375 
Q 42.484375 32.515625 42.4375 33.6875 
Q 39.796875 29.5 35.234375 26.875 
Q 30.671875 24.265625 25.34375 24.265625 
Q 16.453125 24.265625 10.296875 30.703125 
Q 4.15625 37.15625 4.15625 47.703125 
Q 4.15625 58.59375 10.578125 65.234375 
Q 17 71.875 26.65625 71.875 
Q 33.640625 71.875 39.421875 68.109375 
Q 45.21875 64.359375 48.21875 57.390625 
Q 51.21875 50.4375 51.21875 37.25 
Q 51.21875 23.53125 48.234375 15.40625 
Q 45.265625 7.28125 39.375 3.03125 
Q 33.5 -1.21875 25.59375 -1.21875 
Q 17.1875 -1.21875 11.859375 3.4375 
Q 6.546875 8.109375 5.46875 16.546875 
z
M 41.453125 48.140625 
Q 41.453125 55.71875 37.421875 60.15625 
Q 33.40625 64.59375 27.734375 64.59375 
Q 21.875 64.59375 17.53125 59.8125 
Q 13.1875 55.03125 13.1875 47.40625 
Q 13.1875 40.578125 17.3125 36.296875 
Q 21.4375 32.03125 27.484375 32.03125 
Q 33.59375 32.03125 37.515625 36.296875 
Q 41.453125 40.578125 41.453125 48.140625 
z
" id="ArialMT-57"/>
     </defs>
     <use xlink:href="#ArialMT-57"/>
    </g>
   </g>
   <g id="text_22">
    <!-- 10 -->
    <g style="fill:#262626;" transform="translate(78.184018 119.022188)scale(0.12 -0.12)">
     <defs>
      <path d="M 4.15625 35.296875 
Q 4.15625 48 6.765625 55.734375 
Q 9.375 63.484375 14.515625 67.671875 
Q 19.671875 71.875 27.484375 71.875 
Q 33.25 71.875 37.59375 69.546875 
Q 41.9375 67.234375 44.765625 62.859375 
Q 47.609375 58.5 49.21875 52.21875 
Q 50.828125 45.953125 50.828125 35.296875 
Q 50.828125 22.703125 48.234375 14.96875 
Q 45.65625 7.234375 40.5 3 
Q 35.359375 -1.21875 27.484375 -1.21875 
Q 17.140625 -1.21875 11.234375 6.203125 
Q 4.15625 15.140625 4.15625 35.296875 
z
M 13.1875 35.296875 
Q 13.1875 17.671875 17.3125 11.828125 
Q 21.4375 6 27.484375 6 
Q 33.546875 6 37.671875 11.859375 
Q 41.796875 17.71875 41.796875 35.296875 
Q 41.796875 52.984375 37.671875 58.78125 
Q 33.546875 64.59375 27.390625 64.59375 
Q 21.34375 64.59375 17.71875 59.46875 
Q 13.1875 52.9375 13.1875 35.296875 
z
" id="ArialMT-48"/>
     </defs>
     <use xlink:href="#ArialMT-49"/>
     <use x="55.615234" xlink:href="#ArialMT-48"/>
    </g>
   </g>
   <g id="text_23">
    <!-- 11 -->
    <g style="fill:#262626;" transform="translate(109.689375 119.022188)scale(0.12 -0.12)">
     <use xlink:href="#ArialMT-49"/>
     <use x="48.240234" xlink:href="#ArialMT-49"/>
    </g>
   </g>
   <g id="text_24">
    <!-- 12 -->
    <g style="fill:#262626;" transform="translate(140.309732 119.022188)scale(0.12 -0.12)">
     <use xlink:href="#ArialMT-49"/>
     <use x="55.615234" xlink:href="#ArialMT-50"/>
    </g>
   </g>
   <g id="text_25">
    <!-- 13 -->
    <g style="fill:#262626;" transform="translate(171.372589 119.022188)scale(0.12 -0.12)">
     <use xlink:href="#ArialMT-49"/>
     <use x="55.615234" xlink:href="#ArialMT-51"/>
    </g>
   </g>
   <g id="text_26">
    <!-- 14 -->
    <g style="fill:#262626;" transform="translate(202.435446 119.022188)scale(0.12 -0.12)">
     <use xlink:href="#ArialMT-49"/>
     <use x="55.615234" xlink:href="#ArialMT-52"/>
    </g>
   </g>
   <g id="text_27">
    <!-- 15 -->
    <g style="fill:#262626;" transform="translate(16.058304 150.085045)scale(0.12 -0.12)">
     <use xlink:href="#ArialMT-49"/>
     <use x="55.615234" xlink:href="#ArialMT-53"/>
    </g>
   </g>
   <g id="text_28">
    <!-- 16 -->
    <g style="fill:#262626;" transform="translate(47.121161 150.085045)scale(0.12 -0.12)">
     <use xlink:href="#ArialMT-49"/>
     <use x="55.615234" xlink:href="#ArialMT-54"/>
    </g>
   </g>
   <g id="text_29">
    <!-- 17 -->
    <g style="fill:#262626;" transform="translate(78.184018 150.085045)scale(0.12 -0.12)">
     <use xlink:href="#ArialMT-49"/>
     <use x="55.615234" xlink:href="#ArialMT-55"/>
    </g>
   </g>
   <g id="text_30">
    <!-- 18 -->
    <g style="fill:#262626;" transform="translate(109.246875 150.085045)scale(0.12 -0.12)">
     <use xlink:href="#ArialMT-49"/>
     <use x="55.615234" xlink:href="#ArialMT-56"/>
    </g>
   </g>
   <g id="text_31">
    <!-- 19 -->
    <g style="fill:#262626;" transform="translate(140.309732 150.085045)scale(0.12 -0.12)">
     <use xlink:href="#ArialMT-49"/>
     <use x="55.615234" xlink:href="#ArialMT-57"/>
    </g>
   </g>
   <g id="text_32">
    <!-- 20 -->
    <g style="fill:#262626;" transform="translate(171.372589 150.085045)scale(0.12 -0.12)">
     <use xlink:href="#ArialMT-50"/>
     <use x="55.615234" xlink:href="#ArialMT-48"/>
    </g>
   </g>
   <g id="text_33">
    <!-- 21 -->
    <g style="fill:#262626;" transform="translate(202.435446 150.085045)scale(0.12 -0.12)">
     <use xlink:href="#ArialMT-50"/>
     <use x="55.615234" xlink:href="#ArialMT-49"/>
    </g>
   </g>
   <g id="text_34">
    <!-- 22 -->
    <g style="fill:#262626;" transform="translate(16.058304 181.147902)scale(0.12 -0.12)">
     <use xlink:href="#ArialMT-50"/>
     <use x="55.615234" xlink:href="#ArialMT-50"/>
    </g>
   </g>
   <g id="text_35">
    <!-- 23 -->
    <g style="fill:#262626;" transform="translate(47.121161 181.147902)scale(0.12 -0.12)">
     <use xlink:href="#ArialMT-50"/>
     <use x="55.615234" xlink:href="#ArialMT-51"/>
    </g>
   </g>
   <g id="text_36">
    <!-- 24 -->
    <g style="fill:#262626;" transform="translate(78.184018 181.147902)scale(0.12 -0.12)">
     <use xlink:href="#ArialMT-50"/>
     <use x="55.615234" xlink:href="#ArialMT-52"/>
    </g>
   </g>
   <g id="text_37">
    <!-- 25 -->
    <g style="fill:#262626;" transform="translate(109.246875 181.147902)scale(0.12 -0.12)">
     <use xlink:href="#ArialMT-50"/>
     <use x="55.615234" xlink:href="#ArialMT-53"/>
    </g>
   </g>
   <g id="text_38">
    <!-- 26 -->
    <g style="fill:#262626;" transform="translate(140.309732 181.147902)scale(0.12 -0.12)">
     <use xlink:href="#ArialMT-50"/>
     <use x="55.615234" xlink:href="#ArialMT-54"/>
    </g>
   </g>
   <g id="text_39">
    <!-- 27 -->
    <g style="fill:#262626;" transform="translate(171.372589 181.147902)scale(0.12 -0.12)">
     <use xlink:href="#ArialMT-50"/>
     <use x="55.615234" xlink:href="#ArialMT-55"/>
    </g>
   </g>
   <g id="text_40">
    <!-- 28 -->
    <g style="fill:#262626;" transform="translate(202.435446 181.147902)scale(0.12 -0.12)">
     <use xlink:href="#ArialMT-50"/>
     <use x="55.615234" xlink:href="#ArialMT-56"/>
    </g>
   </g>
   <g id="text_41">
    <!-- 29 -->
    <g style="fill:#262626;" transform="translate(16.058304 212.210759)scale(0.12 -0.12)">
     <use xlink:href="#ArialMT-50"/>
     <use x="55.615234" xlink:href="#ArialMT-57"/>
    </g>
   </g>
   <g id="text_42">
    <!-- 30 -->
    <g style="fill:#262626;" transform="translate(47.121161 212.210759)scale(0.12 -0.12)">
     <use xlink:href="#ArialMT-51"/>
     <use x="55.615234" xlink:href="#ArialMT-48"/>
    </g>
   </g>
   <g id="text_43">
    <!-- 31 -->
    <g style="fill:#262626;" transform="translate(78.184018 212.210759)scale(0.12 -0.12)">
     <use xlink:href="#ArialMT-51"/>
     <use x="55.615234" xlink:href="#ArialMT-49"/>
    </g>
   </g>
  </g>
  <g id="axes_2">
   <g id="patch_3">
    <path clip-path="url(#p678bb38430)" d="M 241.38 224.64 
L 241.38 223.790625 
L 241.38 8.049375 
L 241.38 7.2 
L 252.252 7.2 
L 252.252 8.049375 
L 252.252 223.790625 
L 252.252 224.64 
z
" style="fill:#ffffff;stroke:#ffffff;stroke-linejoin:miter;stroke-width:0.01;"/>
   </g>
   <g id="matplotlib.axis_3"/>
   <g id="matplotlib.axis_4">
    <g id="ytick_1">
     <g id="line2d_1">
      <defs>
       <path d="M 0 0 
L 6 0 
" id="m654afcd739" style="stroke:#262626;stroke-width:1.25;"/>
      </defs>
      <g>
       <use style="fill:#262626;stroke:#262626;stroke-width:1.25;" x="252.252" xlink:href="#m654afcd739" y="210.517608"/>
      </g>
     </g>
     <g id="text_44">
      <!-- 500 -->
      <g style="fill:#262626;" transform="translate(261.752 214.454405)scale(0.11 -0.11)">
       <use xlink:href="#ArialMT-53"/>
       <use x="55.615234" xlink:href="#ArialMT-48"/>
       <use x="111.230469" xlink:href="#ArialMT-48"/>
      </g>
     </g>
    </g>
    <g id="ytick_2">
     <g id="line2d_2">
      <g>
       <use style="fill:#262626;stroke:#262626;stroke-width:1.25;" x="252.252" xlink:href="#m654afcd739" y="173.156784"/>
      </g>
     </g>
     <g id="text_45">
      <!-- 1000 -->
      <g style="fill:#262626;" transform="translate(261.752 177.09358)scale(0.11 -0.11)">
       <use xlink:href="#ArialMT-49"/>
       <use x="55.615234" xlink:href="#ArialMT-48"/>
       <use x="111.230469" xlink:href="#ArialMT-48"/>
       <use x="166.845703" xlink:href="#ArialMT-48"/>
      </g>
     </g>
    </g>
    <g id="ytick_3">
     <g id="line2d_3">
      <g>
       <use style="fill:#262626;stroke:#262626;stroke-width:1.25;" x="252.252" xlink:href="#m654afcd739" y="135.795959"/>
      </g>
     </g>
     <g id="text_46">
      <!-- 1500 -->
      <g style="fill:#262626;" transform="translate(261.752 139.732756)scale(0.11 -0.11)">
       <use xlink:href="#ArialMT-49"/>
       <use x="55.615234" xlink:href="#ArialMT-53"/>
       <use x="111.230469" xlink:href="#ArialMT-48"/>
       <use x="166.845703" xlink:href="#ArialMT-48"/>
      </g>
     </g>
    </g>
    <g id="ytick_4">
     <g id="line2d_4">
      <g>
       <use style="fill:#262626;stroke:#262626;stroke-width:1.25;" x="252.252" xlink:href="#m654afcd739" y="98.435134"/>
      </g>
     </g>
     <g id="text_47">
      <!-- 2000 -->
      <g style="fill:#262626;" transform="translate(261.752 102.371931)scale(0.11 -0.11)">
       <use xlink:href="#ArialMT-50"/>
       <use x="55.615234" xlink:href="#ArialMT-48"/>
       <use x="111.230469" xlink:href="#ArialMT-48"/>
       <use x="166.845703" xlink:href="#ArialMT-48"/>
      </g>
     </g>
    </g>
    <g id="ytick_5">
     <g id="line2d_5">
      <g>
       <use style="fill:#262626;stroke:#262626;stroke-width:1.25;" x="252.252" xlink:href="#m654afcd739" y="61.074309"/>
      </g>
     </g>
     <g id="text_48">
      <!-- 2500 -->
      <g style="fill:#262626;" transform="translate(261.752 65.011106)scale(0.11 -0.11)">
       <use xlink:href="#ArialMT-50"/>
       <use x="55.615234" xlink:href="#ArialMT-53"/>
       <use x="111.230469" xlink:href="#ArialMT-48"/>
       <use x="166.845703" xlink:href="#ArialMT-48"/>
      </g>
     </g>
    </g>
    <g id="ytick_6">
     <g id="line2d_6">
      <g>
       <use style="fill:#262626;stroke:#262626;stroke-width:1.25;" x="252.252" xlink:href="#m654afcd739" y="23.713485"/>
      </g>
     </g>
     <g id="text_49">
      <!-- 3000 -->
      <g style="fill:#262626;" transform="translate(261.752 27.650281)scale(0.11 -0.11)">
       <use xlink:href="#ArialMT-51"/>
       <use x="55.615234" xlink:href="#ArialMT-48"/>
       <use x="111.230469" xlink:href="#ArialMT-48"/>
       <use x="166.845703" xlink:href="#ArialMT-48"/>
      </g>
     </g>
    </g>
   </g>
   <image height="218" id="image5124cffc1c" transform="scale(1 -1)translate(0 -218)" width="11" x="241" xlink:href="data:image/png;base64,
iVBORw0KGgoAAAANSUhEUgAAAAsAAADaCAYAAABwzrisAAABJUlEQVR4nO2asRLCMAxDDef//10GSMMIY97weiqks06nyLKd9np7POesxaePdWx1rWOrAbYaqKieQAdkjpBxX4dSzajcqIIwG1oF17HVE7mREf4i1h0Z4U+ZG1r4r2jdnvznyEixbof/CxwSfm8dI2a2JsTdbWlmPiPmDDcQ8xBHAamgx5whw7sxwu723ABgrwdfYBakdLc3vgYoIW0rwOztFMQ8SDa81yUx/N5q066XXpDYahOt895T0CjIWPRekMTujriZs9QxNyIiKq6JkGxocwMdUPxWIDJvNz7gnz8gnHXr19wczSHMIeUmYPGAFph9NmSjAITfk5ECzshGSLlDNP9BuREYNSxhPoYmQ9OMmNkBM4riMY9d7lNkhDBb3Y1+MXoDd9LiE5gbos4AAAAASUVORK5CYII=" y="-6"/>
   <g id="patch_4">
    <path d="M 241.38 224.64 
L 241.38 223.790625 
L 241.38 8.049375 
L 241.38 7.2 
L 252.252 7.2 
L 252.252 8.049375 
L 252.252 223.790625 
L 252.252 224.64 
z
" style="fill:none;"/>
   </g>
  </g>
 </g>
 <defs>
  <clipPath id="pefd400a8a3">
   <rect height="217.44" width="217.44" x="7.2" y="7.2"/>
  </clipPath>
  <clipPath id="p678bb38430">
   <rect height="217.44" width="10.872" x="241.38" y="7.2"/>
  </clipPath>
 </defs>
</svg>
